{
    "sourceFile": "src/views/main/contents/contentStep01/Index.vue",
    "activeCommit": 0,
    "commits": [
        {
            "activePatchIndex": 3,
            "patches": [
                {
                    "date": 1697866945573,
                    "content": "Index: \n===================================================================\n--- \n+++ \n"
                },
                {
                    "date": 1697866954569,
                    "content": "Index: \n===================================================================\n--- \n+++ \n@@ -20,16 +20,12 @@\n import { useRouter, useRoute } from 'vue-router';\n \n import { LOADER, USER, IS_LOGINED, TOKEN } from '@/store/mutation_types';\n \n-import RoomSelect from './RoomSelect.vue';\n-import Rooms from './Rooms.vue';\n \n export default defineComponent({\n   name: 'ContentStep01',\n   components: {\n-    RoomSelect,\n-    Rooms,\n   },\n   setup(props, context) {\n     const componentName = getCurrentInstance()?.type?.name;\n \n"
                },
                {
                    "date": 1697866967712,
                    "content": "Index: \n===================================================================\n--- \n+++ \n@@ -34,16 +34,10 @@\n     const state = reactive({});\n \n     // onMounted\n     onMounted(function () {\n-      let isLogin = store.getters[IS_LOGINED];\n \n       console.log(componentName, '- onMounted ', { isLogin });\n-\n-      // 로그인 여부 확인\n-      if (!isLogin) {\n-        router.push({ path: '/idle' }); // idle 페이지로 이동\n-      }\n     });\n \n     return { state };\n   },\n"
                },
                {
                    "date": 1697867100127,
                    "content": "Index: \n===================================================================\n--- \n+++ \n@@ -34,9 +34,9 @@\n     const state = reactive({});\n \n     // onMounted\n     onMounted(function () {\n-      console.log(componentName, '- onMounted ', { isLogin });\n+      console.log(componentName, '- onMounted ',  );\n     });\n \n     return { state };\n   },\n"
                }
            ],
            "date": 1697866945573,
            "name": "Commit-0",
            "content": "<template>\n  <div class=\"content_step_01\">\n   <h1>서브 스텝1</h1>\n  </div>\n</template>\n\n<script lang=\"ts\">\nimport {\n  reactive,\n  ref,\n  computed,\n  watch,\n  onMounted,\n  defineComponent,\n  getCurrentInstance,\n  inject,\n} from 'vue';\n\nimport { useStore } from 'vuex';\nimport { useRouter, useRoute } from 'vue-router';\n\nimport { LOADER, USER, IS_LOGINED, TOKEN } from '@/store/mutation_types';\n\nimport RoomSelect from './RoomSelect.vue';\nimport Rooms from './Rooms.vue';\n\nexport default defineComponent({\n  name: 'ContentStep01',\n  components: {\n    RoomSelect,\n    Rooms,\n  },\n  setup(props, context) {\n    const componentName = getCurrentInstance()?.type?.name;\n\n    const store = useStore();\n    const router = useRouter();\n\n    // data\n    const state = reactive({});\n\n    // onMounted\n    onMounted(function () {\n      let isLogin = store.getters[IS_LOGINED];\n\n      console.log(componentName, '- onMounted ', { isLogin });\n\n      // 로그인 여부 확인\n      if (!isLogin) {\n        router.push({ path: '/idle' }); // idle 페이지로 이동\n      }\n    });\n\n    return { state };\n  },\n});\n</script>\n"
        }
    ]
}